{
	"Data":{
		"EnableSaving":false,
		"Bricks":[
			"assembly:/_pro/scenes/missions/skunk/mission_gartersnake.brick"
		],
		"DevOnlyBricks":[
			"assembly:/_pro/scenes/missions/skunk/dev_gartersnake.brick"
		],
		"VR":[

		],
		"GameChangers":[

		],
		"GameDifficulties":[
			{
				"Difficulty":"easy",
				"Bricks":[
					"assembly:/_pro/scenes/missions/skunk/difficulty_easy_vermont_gartersnake.brick"
				]
			},
			{
				"Difficulty":"normal",
				"Bricks":[

				]
			},
			{
				"Difficulty":"hard",
				"Bricks":[
					"assembly:/_pro/scenes/missions/skunk/difficulty_hard_vermont_gartersnake.brick"
				]
			}
		],
		"Objectives":[
			"3cf8ef68-e6f3-466a-9299-de50e9f0a9bb|TARGET",
			"3cf8ef68-e6f3-466a-9299-de50e9f0a9bb|DISGUISE-STATE-MACHINE",
			"3cf8ef68-e6f3-466a-9299-de50e9f0a9bb|KILL-STATE-MACHINE"
		]
	},
	"Metadata":{
		"Id":"{{PARAM-CONTRACT-ID}}",
		"CodeName_Hint":"GarterSnake",
		"Release":{
			"Major":2,
			"Minor":70,
			"Build":0,
			"Revision":-1,
			"MajorRevision":-1,
			"MinorRevision":-1
		},
		"Type":"flashback",
		"Subtype":"specialassignment",
		"Title":"UI_CONTRACT_GARTERSNAKE_TITLE",
		"Description":"UI_CONTRACT_GARTERSNAKE_DESC",
		"BriefingVideo":"briefing_gartersnake",
		"DebriefingVideo":"debriefing_gartersnake",
		"ScenePath":"assembly:/_pro/scenes/missions/skunk/scene_gartersnake.entity",
		"TileImage":"Images/Contracts/GarterSnake/Tile.jpg",
		"Location":"LOCATION_NORTHAMERICA_GARTERSNAKE",
		"IsPublished":true,
		"LastUpdate":"2021-03-11T13:19:14.5306703Z",
		"CreationTimestamp":"2012-12-12T12:12:12.743Z",
		"CreatorUserId":"fadb923c-e6bb-4283-a537-eb4d1150262e",
		"RequiredUnlockable":"ACCESS_HIT_GARTERSNAKE",
		"Drops":[
			"ACCESS_HIT_S2_EXPANSION_SPECIALASSIGNMENT_CONCLUSION"
		],
		"Entitlements":[
			"H2_LEGACY_EXPANSION"
		],
		"PublicId":"{{PARAM-PUBLIC-ID}}",
		"GroupObjectiveDisplayOrder": [
			{"Id": "3cf8ef68-e6f3-466a-9299-de50e9f0a9bb|TARGET-GUID"},
			{"Id": "3cf8ef68-e6f3-466a-9299-de50e9f0a9bb|DISGUISE-GUID"},
			{"Id": "3cf8ef68-e6f3-466a-9299-de50e9f0a9bb|KILL-GUID"}
		]
	},
	"UserData":{

	}
}