{
	"Data":{
		"EnableSaving":false,
		"Objectives":[
			"052434e7-f451-462f-a9d7-13657cb047c0|TARGET",
			"052434e7-f451-462f-a9d7-13657cb047c0|DISGUISE-STATE-MACHINE",
			"052434e7-f451-462f-a9d7-13657cb047c0|KILL-STATE-MACHINE",
			"edad702b-5b37-4dc1-a47c-36a1588f1d3f|TARGET",
			"edad702b-5b37-4dc1-a47c-36a1588f1d3f|DISGUISE-STATE-MACHINE",
			"edad702b-5b37-4dc1-a47c-36a1588f1d3f|KILL-STATE-MACHINE"
		],
		"GameDifficulties":[
			{
				"Difficulty":"easy",
				"Bricks":[
					"assembly:/_pro/scenes/missions/paris/difficulty_easy_paris_peacock.brick"
				]
			},
			{
				"Difficulty":"normal",
				"Bricks":[
					
				]
			},
			{
				"Difficulty":"hard",
				"Bricks":[
					"assembly:/_pro/scenes/missions/paris/difficulty_pro1_paris_fashionshow.brick"
				]
			}
		],
		"Bricks":[
			
		],
		"VR":[
			{
				"Quality":"base",
				"Bricks":[
					"assembly:/_pro/Scenes/Bricks/vr_setup.brick",
					"assembly:/_pro/scenes/missions/paris/vr_overrides_peacock.brick",
					"assembly:/_pro/scenes/missions/paris/vr_agility_overrides_peacock.brick",
					"assembly:/_pro/scenes/missions/paris/vr_overrides_ps4perf.brick"
				]
			}
		],
		"GameChangers":[
			
		]
	},
	"Metadata":{
		"IsLocked":false,
		"CreatorUserId":"fadb923c-e6bb-4283-a537-eb4d1150262e",
		"IsPublished":true,
		"TileImage":"images/contracts/novikov_and_magolis/tile.jpg",
		"BriefingVideo":"briefing_peacock",
		"DebriefingVideo":"debriefing_peacock",
		"Location":"LOCATION_PARIS",
		"MissionData":{
			"Context":"PALAIS DE WALEWSKA",
			"MissionType":"Assasination"
		},
		"Title":"UI_CONTRACT_PEACOCK_TITLE",
		"CodeName_Hint":"Peacock",
		"ScenePath":"assembly:/_PRO/Scenes/Missions/Paris/_Scene_FashionShowHit_01.entity",
		"Description":"UI_CONTRACT_PEACOCK_DESC",
		"Id":"{{PARAM-CONTRACT-ID}}",
		"CreationTimestamp":"2014-04-04T09:41:25.473Z",
		"LastUpdate":"2021-03-11T13:19:14.1131137Z",
		"Type":"mission",
		"Release":"1.0.x",
		"RequiredUnlockable":"ACCESS_HIT_PEACOCK",
		"Drops":[
			"ACCESS_HIT_OCTOPUS"
		],
		"Opportunities":[
			"f246e3ab-3a35-49a0-a159-615632d7fa89",
			"728ff71e-395d-4a00-8065-305a43a92105",
			"0a051691-d391-47f9-aad6-6d2807b3bb69",
			"468177b2-fa0a-41f5-b510-80fcd142ed6f",
			"2e79a8f1-4498-41c8-9784-d48173d61b0a",
			"6175fbd2-84f5-4c7f-a677-f61990b3a0fd",
			"e8c68134-b552-4f48-a51f-7039f36381b1",
			"e6cb331f-82b1-4023-b037-21da954babbc"
		],
		"Entitlements":[
			"H1_LEGACY_STANDARD"
		],
		"PublicId":"{{PARAM-PUBLIC-ID}}",
		"GroupObjectiveDisplayOrder": [
			{"Id": "052434e7-f451-462f-a9d7-13657cb047c0|TARGET-GUID"},
			{"Id": "052434e7-f451-462f-a9d7-13657cb047c0|DISGUISE-GUID"},
			{"Id": "052434e7-f451-462f-a9d7-13657cb047c0|KILL-GUID"},
			{"Id": "edad702b-5b37-4dc1-a47c-36a1588f1d3f|TARGET-GUID"},
			{"Id": "edad702b-5b37-4dc1-a47c-36a1588f1d3f|DISGUISE-GUID"},
			{"Id": "edad702b-5b37-4dc1-a47c-36a1588f1d3f|KILL-GUID"}
		]
	},
	"UserData":{
		
	}
}