{
    "$or": [
        {
            "$eq":[
                "$Value.KillMethodBroad",
                "sniperrifle"
            ]
        },
        {
            "$and": [
                {
                    "$eq": [
                        "$Value.RepositoryId",
                        "c0ab162c-1502-40d5-801f-c5471289d6b7"
                    ]
                },
                {
                    "$eq":[
                        "$.SniperKillAchieved",
                        1
                    ]
                }
            ]
        }
    ]
}