{
    "$or": [
        {
            "$eq":[
                "$Value.KillMethodStrict",
                "{{STRICT-KILL-METHOD}}"
            ]
        },
        {
            "$eq":[
                "$Value.SetPieceId",
                "b16e06dd-43db-4bb3-bed9-3c0035768499"
            ]
        }
    ]
}