{
    "_comment":"----- Eliminate Arthur Edwards -----",
    "Id":"{{TARGET-OBJECTIVE-GUID}}",
    "ObjectiveType": "customkill",
    "Category":"primary",
    "TargetConditions":[
        "{{TARGET-CONDITIONS-DISGUISE}}",
        "{{TARGET-CONDITIONS-WEAPON}}"
    ],
    "HUDTemplate":{
        "display":"{{PARAM-TARGET-NAME}}: {{PARAM-KILL-METHOD-NAME}} / {{PARAM-DISGUISE-NAME}}"
    },
    "RepeatSuccess":1,
    "RepeatFailed":1,
    "BriefingText":"Eliminate Using: <b>{{PARAM-KILL-METHOD-NAME}}</b>\t\t\t\t\tWear Disguise: <b>{{PARAM-DISGUISE-NAME}}</b>",
    "LongBriefingText": "Eliminate {{PARAM-TARGET-NAME}} via <b>{{PARAM-KILL-METHOD-NAME}}</b> while wearing <b>{{PARAM-DISGUISE-NAME-SUFFIX}}</b>.",
    "Type":"statemachine",
    "Definition":{
        "Scope":"hit",
        "Context":{
            "Targets":[
                "{{PARAM-TARGET-GUID}}"
            ]
        },
        "States":{
            "Start":{
                "Kill":[
                    {
                        "Condition":{
                            "$and":[
                                {
                                    "$eq":[
                                        "$Value.RepositoryId",
                                        "{{PARAM-TARGET-GUID}}"
                                    ]
                                }
                            ]
                        },
                        "Transition":"Success"
                    }
                ],
                "POISON_CONSTANT_EVENT": {
                    "Transition": "Failure"
                },
                "ENDING_HM_SERUM": {
                    "Transition": "Failure"
                }
            }
        }
    }
}